objid	container	server_template_crc	cell_index	px	py	pz	qw	qx	qy	qz	scripts	objvars
i	i	h	i	f	f	f	f	f	f	f	s	p
923861	0	object/tangible/hq_destructible/power_regulator.iff	0	780.394	76	903.828	0.516449	0	0.856318	0		$|
923862	0	object/tangible/hq_destructible/override_terminal.iff	0	839.015	75.7463	952.972	0.169182	0	0.985585	0		$|
7555624	0	object/building/military/military_outpost_guard_tower_1.iff	0	750.107	76	953.612	0	0	1	0		$|
7555625	0	object/building/military/military_outpost_guard_tower_1.iff	0	793.272	76	991.083	0.70711	0	-0.707103	0		$|
7555626	0	object/building/military/military_base_gate_house_rebel.iff	0	766.847	76	939.117	0.885745	0	0.464172	0		$|
7555627	0	object/building/military/military_base_gate_house_rebel.iff	0	806.652	76	972.452	-0.354799	0	0.934943	0		$|
7555628	0	object/tangible/furniture/tatooine/frn_tato_table_small_style_01.iff	0	792.011	75.9333	898.413	1	0	0	0		$|
7555629	0	object/tangible/furniture/tatooine/frn_tato_chair_cafe_style_02.iff	0	795.364	75.9997	898.917	0.758361	0	-0.651835	0		$|
7555630	0	object/tangible/furniture/tatooine/frn_tato_chair_cafe_style_02.iff	0	794.492	75.9989	897.667	0.975897	0	-0.21823	0		$|
7555632	0	object/building/military/military_base_shed_rebel_style_01.iff	0	759.416	76	973.539	0.35012	0	0.936705	0	theme_park.dungeon.generic_spawner	spawn_table|4|datatables/spawning/poi_spawner/rori/rebel_outpost_shed_1.iff|$|
7555633	7555632	object/cell/cell.iff	1	0	0	0	1	1.401298E-45	0	0		$|
7555634	7555632	object/cell/cell.iff	2	0	0	0	1	2.802597E-45	0	0		$|
7555635	7555632	object/cell/cell.iff	3	0	0	0	1	4.203895E-45	0	0		$|
923864	7555635	object/tangible/hq_destructible/security_terminal.iff	3	1.224029	0.125265	-6.189283	0.9238796	0	-0.3826834	0		$|
7555636	7555632	object/cell/cell.iff	4	0	0	0	1	5.605194E-45	0	0		$|
7555637	7555632	object/cell/cell.iff	5	0	0	0	1	7.006492E-45	0	0		$|
7555638	7555632	object/cell/cell.iff	6	0	0	0	1	8.407791E-45	0	0		$|
4796027	7555638	object/tangible/collection/rare_melee_doom_bringer.iff	6	-5.04162	0.5586548	-3.06466	-0.7031158	0	-0.009600009	-0.004687876		$|
7555639	0	object/building/military/military_base_shed_rebel_style_01.iff	0	773.568	76	986.069	0.35012	0	0.936705	0	theme_park.dungeon.generic_spawner	spawn_table|4|datatables/spawning/poi_spawner/rori/rebel_outpost_shed_2.iff|$|
7555640	7555639	object/cell/cell.iff	1	0	0	0	1	1.401298E-45	0	0		$|
7555641	7555639	object/cell/cell.iff	2	0	0	0	1	2.802597E-45	0	0		$|
7555642	7555639	object/cell/cell.iff	3	0	0	0	1	4.203895E-45	0	0		$|
7555643	7555639	object/cell/cell.iff	4	0	0	0	1	5.605194E-45	0	0		$|
7555644	7555639	object/cell/cell.iff	5	0	0	0	1	7.006492E-45	0	0		$|
923863	7555644	object/tangible/hq_destructible/uplink_terminal.iff	5	4.271544	0.125266	-5.807487	1	0	0	0		$|
7555645	7555639	object/cell/cell.iff	6	0	0	0	1	8.407791E-45	0	0		$|
7555646	0	object/building/military/military_outpost_guard_house_rebel.iff	0	815.55	76	921.273	-0.044985	0	0.998988	0	theme_park.dungeon.generic_spawner	spawn_table|4|datatables/spawning/poi_spawner/rori/rebel_outpost_guard_house.iff|$|
7555647	7555646	object/cell/cell.iff	1	0	0	0	1	1.401298E-45	0	0		$|
7555648	7555646	object/cell/cell.iff	2	0	0	0	1	2.802597E-45	0	0		$|
923866	7555648	object/tangible/terminal/terminal_hq.iff	2	-2.279438	4.01	-3.185393	1	0	0	0		$|
7555697	0	object/static/structure/general/data_terminal_s1.iff	0	821.039	82.9589	917.987	0.744909	0	-0.667166	0		$|
7555698	0	object/static/item/item_con_barrel_lg_s1.iff	0	809.087	82.9598	916.512	0.670883	0	0.741563	0		$|
7555699	0	object/static/item/item_con_barrel_lg_s1.iff	0	818.276	83.0121	927.069	-0.039989	0	0.9992	0		$|
7555700	0	object/static/item/item_tech_console_sectional_b.iff	0	819.617	82.922	927.441	0.734816	0	-0.678266	0		$|
7555701	0	object/static/structure/tatooine/debris_tatt_drum_storage_1.iff	0	787.025	76	947.452	0.92388	0	0.382683	0		$|
7555702	0	object/static/structure/tatooine/debris_tatt_drum_dented_1.iff	0	786.932	76	946.349	1	0	0	0		$|
7555703	0	object/static/structure/tatooine/debris_tatt_drum_dented_1.iff	0	787.98	76	946.784	0.70711	0	0.707103	0		$|
7555704	0	object/static/structure/tatooine/debris_tatt_drum_dented_1.iff	0	788.426	76	945.569	0.967663	0	0.252245	0		$|
7555705	0	object/static/structure/tatooine/debris_tatt_radar_dish.iff	0	791.408	76.5287	960.959	0.974249	-0.040713	-0.071008	0.210093		$|
7555708	0	object/static/item/item_tool_sensor_beacon.iff	0	773.367	76	949.553	0.975897	0	0.21823	0		$|
7555709	0	object/static/item/item_tool_sensor_beacon.iff	0	794.333	76	967.618	0.797473	0	0.603355	0		$|
7555711	0	object/static/structure/military/military_column_strong_rebel_style_01.iff	0	821.904	76	913.724	0.368781	0	0.929516	0		$|
7555712	0	object/static/structure/military/military_wall_strong_rebl_16_style_01.iff	0	813.45	76	914.442	-0.042288	0	0.999105	0		$|
7555713	0	object/static/structure/military/military_wall_strong_rebl_16_style_01.iff	0	822.622	76	922.179	0.676572	0	0.736377	0		$|
7555714	0	object/static/structure/military/military_column_strong_rebel_style_01.iff	0	804.994	76	915.158	-0.437394	0	0.89927	0		$|
7555715	0	object/static/structure/military/military_column_strong_rebel_style_01.iff	0	823.339	76	930.633	0.852318	0	0.523025	0		$|
7555716	0	object/static/structure/military/military_wall_strong_rebl_16_style_01.iff	0	831.09	76	950.741	-0.475032	0	0.879969	0		$|
7555717	0	object/static/structure/military/military_wall_strong_rebl_16_style_01.iff	0	795.404	76	959.264	0.812306	0	0.583232	0		$|
7555718	0	object/static/structure/military/military_wall_strong_rebl_16_style_01.iff	0	802.405	76	943.816	0.867819	0	0.49688	0		$|
7555719	0	object/static/structure/military/military_wall_strong_rebl_16_style_01.iff	0	842.015	75.9859	933.307	0.466561	0	0.884489	0		$|
7555720	0	object/static/structure/military/military_wall_strong_rebl_32_style_01.iff	0	841.11	75.9981	956.095	0.816774	0	0.576958	0		$|
7555721	0	object/static/structure/military/military_wall_strong_rebl_32_style_01.iff	0	825.062	76.8464	984.422	0.906145	-0.0168519	0.421073	-0.0362651		$|
7555722	0	object/static/structure/military/military_wall_strong_rebl_32_style_01.iff	0	758.712	76.0643	988.626	0.939131	-0.00514887	-0.343232	0.014088		$|
7555723	0	object/static/structure/military/military_wall_strong_rebl_32_style_01.iff	0	799.601	78.4412	1002.19	0.987227	0	0.159318	0		$|
7555724	0	object/static/structure/military/military_wall_strong_rebl_16_style_01.iff	0	777.275	77.5909	1002.94	0.961655	-0.010859	-0.27133	0.0384868		$|
7555725	0	object/static/structure/military/military_wall_strong_rebl_16_style_01.iff	0	741.605	75.9936	972.602	0.911039	0	-0.412321	0		$|
7555726	0	object/static/structure/military/military_wall_strong_rebl_32_style_01.iff	0	751.685	76	922.517	-0.42141	0	0.90687	0		$|
7555727	0	object/static/structure/military/military_wall_strong_rebl_32_style_01.iff	0	738.457	75.9993	950.606	-0.652136	0	0.758102	0		$|
7555728	0	object/static/structure/military/military_wall_strong_rebl_32_style_01.iff	0	776.906	76	901.929	-0.242556	0	0.970137	0		$|
7555729	0	object/static/structure/military/military_wall_strong_rebl_16_style_01.iff	0	799.214	75.9906	897.198	0.21823	0	0.975897	0		$|
7555730	0	object/static/structure/military/military_wall_strong_rebl_16_style_01.iff	0	836.545	75.9965	934.596	-0.677972	0	0.735088	0		$|
7555731	0	object/static/structure/military/military_wall_strong_rebl_16_style_01.iff	0	815.269	76	933.26	0.987654	0	0.156653	0		$|
7555732	0	object/static/structure/military/military_wall_strong_rebl_16_style_01.iff	0	803.851	76	923.565	-0.657653	0	0.753321	0		$|
7555733	0	object/static/structure/military/military_wall_strong_rebl_16_style_01.iff	0	819.499	76	964.492	-0.37092	0	0.928665	0		$|
7555734	0	object/static/structure/military/military_wall_strong_rebl_16_style_01.iff	0	781.358	76	947.287	-0.230217	0	0.973139	0		$|
7555735	0	object/static/structure/military/military_wall_strong_rebl_16_style_01.iff	0	772.661	76	924.978	0.882333	0	0.470626	0		$|
7555736	0	object/static/structure/military/military_wall_strong_rebl_16_style_01.iff	0	798.907	76	902.96	0.990901	0	0.13459	0		$|
7555737	0	object/static/structure/military/military_wall_strong_rebl_16_style_01.iff	0	784.041	76	911.468	0.928665	0	0.37092	0		$|
7555738	0	object/static/structure/military/military_wall_strong_rebl_16_style_01.iff	0	795.508	76	937.984	-0.34759	0	0.937646	0		$|
7555739	0	object/static/structure/military/military_column_strong_rebel_style_01.iff	0	806.987	76	936.28	0.867819	0	0.49688	0		$|
7555740	0	object/static/structure/military/military_column_strong_rebel_style_01.iff	0	802.281	76	932.161	-0.34759	0	0.937646	0		$|
7555741	0	object/static/structure/military/military_column_strong_rebel_style_01.iff	0	798.117	76	951.223	0.973666	0	0.227978	0		$|
7555742	0	object/static/structure/military/military_column_strong_rebel_style_01.iff	0	788.945	76	943.485	-0.585097	0	0.810963	0		$|
7555743	0	object/static/structure/military/military_column_strong_rebel_style_01.iff	0	837.189	75.9785	926.62	0.040387	0	0.999184	0		$|
7555744	0	object/static/structure/military/military_column_strong_rebel_style_01.iff	0	806.618	75.9975	900.828	0.605503	0	0.795843	0		$|
7555745	0	object/static/structure/military/military_column_strong_rebel_style_01.iff	0	835.865	76	943.493	0.727724	0	-0.68587	0		$|
7555746	0	object/static/structure/military/military_column_strong_rebel_style_01.iff	0	790.413	76	905.532	0.980067	0	0.198669	0		$|
7555747	0	object/static/structure/military/military_column_strong_rebel_style_01.iff	0	777.524	76	917.617	0.90687	0	0.42141	0		$|
7555748	0	object/static/structure/military/military_column_strong_rebel_style_01.iff	0	826.027	76	958.278	-0.42141	0	0.90687	0		$|
7555749	0	object/static/structure/military/military_column_strong_rebel_style_01.iff	0	813.045	76	970.625	-0.37092	0	0.928665	0		$|
7555750	0	object/static/structure/military/military_column_strong_rebel_style_01.iff	0	767.736	76	932.347	0.882333	0	0.470626	0		$|
7555751	0	object/static/structure/military/military_column_strong_rebel_style_01.iff	0	792.775	76	967.054	0.810964	0	0.585097	0		$|
7555752	0	object/static/structure/military/military_column_strong_rebel_style_01.iff	0	774.094	76	950.928	-0.232843	0	0.972514	0		$|
7555753	0	object/static/structure/military/military_column_strong_rebel_style_01.iff	0	770.682	76.9577	998.846	0.949235	0	-0.314567	0		$|
7555754	0	object/static/structure/military/military_column_strong_rebel_style_01.iff	0	784.192	78.7759	1007.05	1	0	0	0		$|
7555755	0	object/static/structure/military/military_column_strong_rebel_style_01.iff	0	746.518	76.0085	978.393	0.934124	0	-0.356949	0		$|
7555756	0	object/static/structure/military/military_column_strong_rebel_style_01.iff	0	736.258	75.9974	966.475	0.79886	0	-0.601517	0		$|
7555757	0	object/static/structure/military/military_column_strong_rebel_style_01.iff	0	814.826	78.2493	997.145	0.911039	0	0.412321	0		$|
7555758	0	object/static/structure/military/military_column_strong_rebel_style_01.iff	0	835.695	75.9979	971.744	0.847254	0	0.531187	0		$|
7555759	0	object/static/structure/military/military_column_strong_rebel_style_01.iff	0	846.499	75.9894	940.46	0.652438	0	0.757843	0		$|
7555760	0	object/static/structure/military/military_column_strong_rebel_style_01.iff	0	791.512	75.9769	894.025	0	0	1	0		$|
7555761	0	object/static/structure/military/military_column_strong_rebel_style_01.iff	0	762.407	76	909.896	-0.356205	0	0.934408	0		$|
7555762	0	object/static/structure/military/military_column_strong_rebel_style_01.iff	0	740.944	75.9997	934.813	-0.405659	0	0.914025	0		$|
7555763	0	object/static/structure/tatooine/debris_tatt_pipe_dual_unconnected.iff	0	806.629	76	916.867	1	0	0	0		$|
7555765	0	object/static/installation/mockup_power_generator_fusion_style_1.iff	0	772.862	75.927	907.817	0.857709	0	-0.514136	0		$|
7555767	0	object/static/item/wp_carbine_dh17_combined.iff	0	793.12	76.8854	897.135	0	0	0.982004	-0.188859		$|
7555768	0	object/static/item/item_bacta_ampules.iff	0	793.157	76.3794	896.999	1	0	0	0		$|
7555769	0	object/static/item/wp_carbine_dh17_combined.iff	0	793.533	76.8854	897.128	0	0	0.982004	-0.188859		$|
7555770	0	object/static/item/item_drall_medicine.iff	0	793.127	76.0316	896.99	1	0	0	0		$|
7555772	0	object/static/item/wp_carbine_dh17_combined.iff	0	793.007	76.8854	897.148	0	0	0.982004	-0.188859		$|
7555773	0	object/static/item/wp_carbine_dh17_combined.iff	0	793.449	76.8854	897.131	0	0	0.982004	-0.188859		$|
7555774	0	object/static/item/wp_carbine_dh17_combined.iff	0	793.243	76.8854	897.15	0	0	0.982004	-0.188859		$|
7555775	0	object/static/item/item_bacta_ampules.iff	0	793.051	76.3794	896.958	1	0	0	0		$|
7555776	0	object/static/item/item_storage_cabinet_01.iff	0	793.293	75.9683	896.956	1	0	0	0		$|
7555777	0	object/static/item/item_bacta_ampules.iff	0	793.2	76.4111	897.06	0.558115	0.604167	-0.425418	0.377505		$|
7555778	0	object/static/item/item_bacta_ampules.iff	0	793.136	76.3794	896.936	1	0	0	0		$|
7555779	0	object/static/item/wp_carbine_dh17_combined.iff	0	793.35	76.8854	897.136	0	0	0.982004	-0.188859		$|
7555780	0	object/static/item/item_medic_bag.iff	0	793.47	76.0948	897.197	0.710913	-0.70328	0	0		$|
7555781	0	object/static/item/item_carbine_dh17.iff	0	792.158	76.5865	898.314	-0.177819	0.684383	-0.684383	0.177819		$|
7555782	0	object/static/item/wp_mle_sword_vibroblade.iff	0	792.318	76.7951	898.351	-0.07422	0.66754	-0.230315	0.704156		$|
7555783	0	object/static/item/item_bread_loaf.iff	0	792.024	76.5568	898.767	0.966171	0	0.257901	0		$|
7555784	0	object/static/item/item_bread_loaf.iff	0	791.844	76.5567	898.543	0.756809	0	0.653636	0		$|
7555785	0	object/static/structure/tatooine/antenna_tatt_style_1.iff	0	802.237	75.9991	900.402	0.915116	0	-0.40319	0		$|
7555786	0	object/static/creature/droids_r2.iff	0	765.51	76	913.28	0.272313	0	0.962209	0		$|
7555787	0	object/static/particle/pt_poi_droid_weld_sparks.iff	0	765.462	76.425	913.268	0.771416	-0.602882	-0.161149	-0.124427		$|
7555788	0	object/static/structure/general/droid_r2_powerdown.iff	0	764.051	76.3994	911.5	-0.283168	0.787103	-0.468065	-0.284958		$|
7555789	0	object/static/structure/general/data_terminal_s1.iff	0	818.237	82.9741	915.228	0.999687	0	0.024998	0		$|
7555790	0	object/static/particle/particle_newbie_bombed_spot.iff	0	763.583	76.425	911.498	1	0	0	0		$|
7555791	0	object/static/particle/particle_newbie_bombed_spot.iff	0	765.573	76.225	912.003	1	0	0	0		$|
7555792	0	object/static/structure/tatooine/antenna_tatt_style_2.iff	0	784.957	78.7708	1003.12	1	0	0	0		$|
7555793	0	object/static/structure/tatooine/debris_tatt_pipe_dual_unconnected.iff	0	764.987	76	932.5	0.70711	0	-0.707103	0		$|
7555794	0	object/static/installation/mockup_power_generator_photo_bio_style_1.iff	0	806.717	76.4191	995.627	-0.157046	0	0.987591	0		$|
7555795	0	object/static/item/item_bacta_ampules.iff	0	807.567	80.4355	967.637	0.558115	0.604167	-0.425418	0.377505		$|
7555796	0	object/static/item/item_bacta_ampules.iff	0	807.503	80.4039	967.514	1	0	0	0		$|
7555797	0	object/static/item/wp_carbine_dh17_combined.iff	0	807.815	80.9099	967.709	0	0	0.982004	-0.188859		$|
7555798	0	object/static/item/wp_carbine_dh17_combined.iff	0	807.373	80.9099	967.726	0	0	0.982004	-0.188859		$|
7555799	0	object/static/item/item_drall_medicine.iff	0	807.493	80.056	967.567	1	0	0	0		$|
7555800	0	object/static/item/wp_carbine_dh17_combined.iff	0	807.899	80.9099	967.706	0	0	0.982004	-0.188859		$|
7555801	0	object/static/item/item_bacta_ampules.iff	0	807.523	80.4039	967.576	1	0	0	0		$|
7555802	0	object/static/item/wp_carbine_dh17_combined.iff	0	807.487	80.9099	967.712	0	0	0.982004	-0.188859		$|
7555803	0	object/static/item/wp_carbine_dh17_combined.iff	0	807.716	80.9099	967.714	0	0	0.982004	-0.188859		$|
7555804	0	object/static/item/item_medic_bag.iff	0	807.837	80.1193	967.774	0.710913	-0.70328	0	0		$|
7555805	0	object/static/item/item_bacta_ampules.iff	0	807.417	80.4039	967.535	1	0	0	0		$|
7555806	0	object/static/item/item_storage_cabinet_01.iff	0	807.659	79.9928	967.534	1	0	0	0		$|
7555807	0	object/static/item/wp_carbine_dh17_combined.iff	0	807.61	80.9099	967.728	0	0	0.982004	-0.188859		$|
7555808	0	object/static/structure/general/data_terminal_s2.iff	0	810.714	79.9935	970.908	0.911985	0	-0.410223	0		$|
7555809	0	object/static/structure/general/droid_r5_powerdown.iff	0	804.619	80.0233	970.206	0.92388	0	0.382683	0		$|
7555810	0	object/static/installation/mockup_power_generator_fusion_style_1.iff	0	836.156	75.9999	960.89	0.985125	0	-0.171842	0		$|
7555812	0	object/static/structure/general/prp_junk_s8.iff	0	838.26	77.056	934.203	1	0	0	0		$|
7555813	0	object/static/structure/general/prp_junk_s6.iff	0	838.834	78.1978	932.396	0	0	1	0		$|
7555814	0	object/static/structure/general/prp_junk_s6.iff	0	840.12	77.0901	933.973	1	0	0	0		$|
7555815	0	object/static/structure/tatooine/palette_tatooine_style_01.iff	0	749.971	76.8747	970.981	-0.41514	0	0.909758	0		$|
7555816	0	object/static/structure/tatooine/debris_tatt_crate_1.iff	0	749.044	77.0012	970.914	0.936845	0	-0.349746	0		$|
7555817	0	object/static/structure/tatooine/debris_tatt_crate_1.iff	0	750.895	76.1474	971.001	0.349748	0	0.936845	0		$|
7555818	0	object/static/structure/tatooine/debris_tatt_crate_1.iff	0	750.24	76.1474	971.757	0.349739	0	0.936847	0		$|
7555819	0	object/static/structure/tatooine/debris_tatt_crate_1.iff	0	750.363	76.1474	970.506	0.349747	0	0.936844	0		$|
7555820	0	object/static/structure/tatooine/debris_tatt_crate_1.iff	0	749.712	76.1474	970.168	0.936844	0	-0.349747	0		$|
7555821	0	object/static/structure/tatooine/debris_tatt_crate_1.iff	0	749.709	76.1474	971.264	0.349745	0	0.936844	0		$|
7555822	0	object/static/structure/tatooine/palette_tatooine_style_01.iff	0	749.981	76.0209	970.999	-0.41514	0	0.909758	0		$|
7555823	0	object/static/structure/tatooine/debris_tatt_crate_1.iff	0	749.057	76.1474	970.923	0.936844	0	-0.349747	0		$|
7555824	0	object/static/structure/tatooine/debris_tatt_crate_1.iff	0	749.683	77.855	970.143	0.936845	0	-0.349746	0		$|
7555825	0	object/static/structure/tatooine/debris_tatt_crate_1.iff	0	750.209	77.855	971.733	0.349736	0	0.936848	0		$|
7555826	0	object/static/structure/tatooine/debris_tatt_crate_1.iff	0	750.184	78.7088	971.692	0.349738	0	0.936847	0		$|
7555827	0	object/static/structure/tatooine/debris_tatt_crate_1.iff	0	750.839	78.7088	970.938	0.349748	0	0.936845	0		$|
7555828	0	object/static/structure/tatooine/debris_tatt_crate_1.iff	0	749.654	78.7088	971.199	0.349748	0	0.936845	0		$|
7555829	0	object/static/structure/tatooine/debris_tatt_crate_1.iff	0	750.882	77.0012	970.99	0.349748	0	0.936845	0		$|
7555830	0	object/static/structure/tatooine/debris_tatt_crate_1.iff	0	749.698	77.0012	971.251	0.349748	0	0.936845	0		$|
7555831	0	object/static/structure/tatooine/debris_tatt_crate_1.iff	0	749.701	77.0012	970.155	0.936845	0	-0.349746	0		$|
7555832	0	object/static/structure/tatooine/debris_tatt_crate_1.iff	0	750.35	77.0012	970.493	0.349748	0	0.936845	0		$|
7555833	0	object/static/structure/tatooine/debris_tatt_crate_1.iff	0	749.682	77.855	971.241	0.349748	0	0.936845	0		$|
7555834	0	object/static/structure/tatooine/palette_tatooine_style_01.iff	0	749.924	78.5824	970.934	-0.41514	0	0.909758	0		$|
7555835	0	object/static/structure/tatooine/debris_tatt_crate_1.iff	0	749.028	77.855	970.896	0.936845	0	-0.349746	0		$|
7555836	0	object/static/structure/tatooine/debris_tatt_crate_1.iff	0	750.867	77.855	970.974	0.349748	0	0.936845	0		$|
7555837	0	object/static/structure/tatooine/debris_tatt_crate_1.iff	0	749.001	78.7088	970.861	0.936845	0	-0.349746	0		$|
7555838	0	object/static/structure/tatooine/debris_tatt_crate_1.iff	0	750.334	77.855	970.483	0.349748	0	0.936845	0		$|
7555839	0	object/static/structure/tatooine/palette_tatooine_style_01.iff	0	749.949	77.7285	970.97	-0.41514	0	0.909758	0		$|
7555840	0	object/static/structure/tatooine/debris_tatt_crate_1.iff	0	749.656	78.7088	970.104	0.936845	0	-0.349746	0		$|
7555841	0	object/static/structure/tatooine/debris_tatt_crate_1.iff	0	750.306	78.7088	970.441	0.349748	0	0.936845	0		$|
7555842	0	object/static/structure/tatooine/debris_tatt_crate_1.iff	0	750.227	77.0012	971.745	0.349736	0	0.936848	0		$|
7555843	0	object/static/item/item_container_inorganic_minerals.iff	0	753.009	79.2301	968.28	0.936845	0	-0.349746	0		$|
7555844	0	object/static/structure/tatooine/palette_tatooine_style_01.iff	0	752.519	79.1036	967.976	0.936845	0	-0.349746	0		$|
7555845	0	object/static/item/item_container_inorganic_minerals.iff	0	752.112	79.2301	967.543	0.936845	0	-0.349746	0		$|
7555846	0	object/static/item/item_container_inorganic_minerals.iff	0	753.005	78.2028	968.261	0.936845	0	-0.349746	0		$|
7555847	0	object/static/structure/tatooine/palette_tatooine_style_01.iff	0	752.518	78.0764	967.954	0.936845	0	-0.349746	0		$|
7555848	0	object/static/item/item_container_inorganic_minerals.iff	0	752.109	78.2028	967.523	0.936845	0	-0.349746	0		$|
7555849	0	object/static/item/item_container_inorganic_minerals.iff	0	752.994	77.1747	968.265	0.936845	0	-0.349746	0		$|
7555850	0	object/static/structure/tatooine/palette_tatooine_style_01.iff	0	752.503	77.0482	967.958	0.936845	0	-0.349746	0		$|
7555851	0	object/static/item/item_container_inorganic_minerals.iff	0	752.097	77.1747	967.527	0.936845	0	-0.349746	0		$|
7555852	0	object/static/item/item_container_inorganic_minerals.iff	0	752.991	76.1474	968.244	0.936845	0	-0.349746	0		$|
7555853	0	object/static/structure/tatooine/palette_tatooine_style_01.iff	0	752.5	76.0209	967.94	0.936845	0	-0.349746	0		$|
7555854	0	object/static/item/item_container_inorganic_minerals.iff	0	752.094	76.1474	967.506	0.936845	0	-0.349746	0		$|
7555855	0	object/static/structure/naboo/poi_nboo_tent_med.iff	0	825.5	76.1087	976.414	0.934943	0	-0.354799	0		$|
7555856	0	object/static/structure/naboo/poi_nboo_tent_small.iff	0	793.745	76.1265	898.476	-0.531524	0	0.847043	0		$|
9715552	0	object/static/structure/naboo/gungan_sacred_head_s01.iff	0	314.2	78.2036	1725.46	0.844589	0	0.535416	0		$|
9715555	0	object/static/structure/naboo/gungan_pillar_damaged_s01.iff	0	333.715	75.608	1701.29	1	0	0	0		$|
9715556	0	object/static/structure/naboo/gungan_pillar_ruined_s01.iff	0	337.086	75.2681	1716.93	1	0	0	0		$|
9715557	0	object/static/structure/naboo/gungan_pillar_ruined_s01.iff	0	307.466	74.2884	1748.81	1	0	0	0		$|
9715558	0	object/static/structure/naboo/gungan_pillar_ruined_s01.iff	0	321.303	74.3676	1745.1	1	0	0	0		$|
7555771	0	object/static/item/item_armor_composite_helmet.iff	0	793.41	74.8299	896.999	1	0	0	0		$|
