objid	container	server_template_crc	cell_index	px	py	pz	qw	qx	qy	qz	scripts	objvars
i	i	h	i	f	f	f	f	f	f	f	s	p
2735813	0	object/static/installation/mockup_mining_liquid_moisture_harvester.iff	0	1231.08	4.85902	1634.89	1	0	0	0		$|
2735814	0	object/static/installation/mockup_mining_liquid_moisture_harvester.iff	0	1227.58	5.01921	1635	1	0	0	0		$|
2735815	0	object/static/installation/mockup_mining_liquid_moisture_harvester.iff	0	1224.41	5.17634	1635.03	1	0	0	0		$|
4045483	0	object/static/structure/general/streetlamp_medium_red_style_01.iff	0	1356.17	20.6267	1394.19	-0.707107	0	0.707107	0		$|
4045484	0	object/static/structure/general/streetlamp_medium_red_style_01.iff	0	1356.03	20.6771	1406.03	-0.707107	0	0.707107	0		$|
4045485	0	object/static/item/item_jar_spice_red.iff	0	1335.35	20.5564	1392.98	0.71791	0	0	0.696136		$|
4045489	0	object/static/structure/corellia/corl_power_transformer_s01.iff	0	1343	16.7108	1402	0.999987	0	-0.00499998	0		$|
4045490	0	object/static/structure/corellia/corl_power_transformer_s01.iff	0	1348.49	16.8923	1402.02	0.999987	0	-0.005	0		$|
4045491	0	object/static/vehicle/e3/landspeeder.iff	0	1361.31	16.7371	1398.83	0.825451	-0.091358	0.529676	0.172414		$|
4045494	0	object/static/particle/pt_smoke_small.iff	0	1363.08	18.6637	1399.77	1	0	0	0		$|
4045495	0	object/static/structure/general/skeleton_human_headandbody.iff	0	1362.43	16.7814	1389.88	0.585743	0	0.810497	0		$|
4045496	0	object/static/structure/general/skeleton_bith_headandbody.iff	0	1347.78	16.7818	1393.76	-0.0255964	-0.662748	-0.0226772	0.748062		$|
4045499	0	object/static/structure/general/skeleton_human_body.iff	0	1341.4	16.4532	1385.69	1	0	0	0		$|
4795356	0	object/building/general/talus_kahmurra_bunker.iff	0	1323.19	16.3456	1392.9	0.710634	0	0.703561	0	theme_park.dungeon.generic_spawner	spawn_table|4|datatables/spawning/poi_spawner/talus/poi_kahmurra_bunker.iff|$|
4795357	4795356	object/cell/cell.iff	1	0	0	0	1	1.401298E-45	0	0		$|
4795358	4795356	object/cell/cell.iff	2	0	0	0	1	2.802597E-45	0	0		$|
4795359	4795356	object/cell/cell.iff	3	0	0	0	1	4.203895E-45	0	0		$|
6075904	4795359	object/tangible/container/loot/placable_loot_crate.iff	3	2.94597	0.5346049	-5.908711	-0.002362241	0	0.7104628	-0.001235864		$|
4795360	4795356	object/cell/cell.iff	4	0	0	0	1	5.605194E-45	0	0		$|
4795361	4795356	object/cell/cell.iff	5	0	0	0	1	7.006492E-45	0	0		$|
6075905	4795361	object/tangible/container/loot/placable_loot_crate.iff	5	-7.489001	-6.75	-0.615375	0.9800666	0	0.1986693	0		$|
4795362	4795356	object/cell/cell.iff	6	0	0	0	1	8.407791E-45	0	0		$|
6075906	4795362	object/tangible/container/loot/placable_loot_crate.iff	6	5.145379	-6.766777	-15.43856	0.9847265	0	0.1741081	0		$|
4795363	4795356	object/cell/cell.iff	7	0	0	0	1	9.809089E-45	0	0		$|
6075907	4795363	object/tangible/container/loot/placable_loot_crate.iff	7	8.658784	-6.745931	-9.423728	1	0	0	0		$|
4795364	4795356	object/cell/cell.iff	8	0	0	0	1	1.121039E-44	0	0		$|
4795365	4795356	object/cell/cell.iff	9	0	0	0	1	1.261169E-44	0	0		$|
3795387	4795365	object/tangible/dungeon/corellian_corvette/corvette_search_neutral_rescue_01.iff	9	-8.175104	-13.75	-0.2532407	0.3272736	0	0.9449296	0		$|
6075908	4795365	object/tangible/container/loot/placable_loot_crate.iff	9	3.361583	-13.75	-0.268087	0.9267984	0	-0.3755592	0		$|
6075909	4795365	object/tangible/container/loot/placable_loot_crate.iff	9	-8.90729	-13.3389	-8.659163	0.4426078	0	0.4246677	0.5598314		$|
4795377	0	object/static/structure/military/military_wall_med_imperial_16_style_01.iff	0	1332.79	16.7466	1382.74	0.92388	0	0.382683	0		$|
4795378	0	object/static/structure/military/military_column_strong_imperial_style_01.iff	0	1339	16.4476	1377	1	0	0	0		$|
4795379	0	object/static/structure/military/military_wall_med_imperial_16_style_01.iff	0	1348	16.1147	1377	1	0	0	0		$|
4795380	0	object/static/structure/military/military_column_strong_imperial_style_01.iff	0	1356	16.1694	1377	1	0	0	0		$|
4795381	0	object/static/structure/military/military_wall_med_imperial_16_style_01.iff	0	1356	16.248	1386	0.707107	0	-0.707106	0		$|
4795382	0	object/static/structure/military/military_column_strong_imperial_style_01.iff	0	1356.13	16.3268	1394.2	1	0	0	0		$|
4795383	0	object/static/structure/military/military_wall_med_imperial_16_style_01.iff	0	1349	16.5754	1406	1	0	0	0		$|
4795384	0	object/static/structure/military/military_wall_med_imperial_16_style_01.iff	0	1334	16.5425	1400	0.92388	0	-0.382683	0		$|
4795385	0	object/static/structure/military/military_column_strong_imperial_style_01.iff	0	1340	16.2784	1406	1	0	0	0		$|
4795386	0	object/static/structure/military/military_column_strong_imperial_style_01.iff	0	1356	16.6033	1406	1	0	0	0		$|
4795389	0	object/static/installation/mockup_power_generator_solar_style_1.iff	0	1346.19	16.5082	1383.78	1	0	0	0		$|
4795390	0	object/static/installation/mockup_power_generator_solar_style_1.iff	0	1340.44	16.4356	1383.77	1	0	0	0		$|
5625536	0	object/building/general/talus_giant_decay_mite_cave.iff	0	590.99	36.5608	1392.27	0.967663	0	0.252245	0	theme_park.dungeon.generic_spawner	spawn_table|4|datatables/spawning/poi_spawner/talus/poi_dmite_bunker.iff|$|
5625537	5625536	object/cell/cell.iff	1	0	0	0	1	1.401298E-45	0	0		$|
5625538	5625536	object/cell/cell.iff	2	0	0	0	1	2.802597E-45	0	0		$|
5625539	5625536	object/cell/cell.iff	3	0	0	0	1	4.203895E-45	0	0		$|
5625569	5625539	object/tangible/container/loot/placable_loot_crate_skeleton_human.iff	3	1.767544	-32.73391	-71.6236	0.9267985	0	0.375559	0		$|
5625540	5625536	object/cell/cell.iff	4	0	0	0	1	5.605194E-45	0	0		$|
5625575	5625540	object/tangible/container/loot/placable_loot_crate_skeleton_human.iff	4	47.94403	-37.97105	-101.0258	0.8269246	0	0.557147	0.01440606		$|
5625541	5625536	object/cell/cell.iff	5	0	0	0	1	7.006492E-45	0	0		$|
5625579	5625541	object/tangible/container/loot/placable_loot_crate_skeleton_human.iff	5	-8.006907	-37.20199	-144.3636	0.04885883	0	0.9921925	0.005643667		$|
5625542	5625536	object/cell/cell.iff	6	0	0	0	1	8.407791E-45	0	0		$|
5625543	5625536	object/cell/cell.iff	7	0	0	0	1	9.809089E-45	0	0		$|
5625591	5625543	object/tangible/container/loot/placable_loot_crate_skeleton_human.iff	7	-12.09388	-55.10091	-261.5784	0.9769764	0	0	0.2133474		$|
5625544	5625536	object/cell/cell.iff	8	0	0	0	1	1.121039E-44	0	0		$|
5625545	5625536	object/cell/cell.iff	9	0	0	0	1	1.261169E-44	0	0		$|
5625546	5625536	object/cell/cell.iff	10	0	0	0	1	1.401298E-44	0	0		$|
5995655	5625546	object/tangible/container/loot/placable_loot_crate_skeleton_human.iff	10	-21.03288	-71.87432	-145.927	0.9971888	0	0	-0.07492968		$|
5625547	5625536	object/cell/cell.iff	11	0	0	0	1	1.541428E-44	0	0		$|
5995664	5625547	object/tangible/container/loot/placable_loot_crate_skeleton_human.iff	11	-79.82497	-91.36655	-90.98325	0.9967893	0	-0.00496402	-0.07991365		$|
5995665	5625547	object/tangible/container/loot/placable_loot_crate_skeleton_human.iff	11	-102.5913	-92.25516	-97.69873	1	0	0	0		$|
5995666	5625547	object/tangible/container/loot/placable_loot_crate_skeleton_human.iff	11	-87.14098	-95.38033	-124.4356	1	0	0	0		$|
8475562	0	object/static/particle/pt_airport_race_light.iff	0	1335.31	20.5259	1392.92	1	0	0	0		$|
9505599	0	object/static/structure/corellia/corl_imprv_gate_sm_s03.iff	0	1227.67	4.62168	1642.86	1	0	0	0		$|
9505600	0	object/static/structure/corellia/corl_imprv_wall_4x16_s01.iff	0	1222.22	4.68725	1635.23	0.780459	0	-0.625207	0		$|
9505606	0	object/static/structure/corellia/corl_imprv_wall_4x16_s01.iff	0	1233.58	4.70516	1635.23	-0.605503	0	0.795843	0		$|
9505611	0	object/static/structure/corellia/corl_imprv_wall_4x16_s01.iff	0	1228.14	4.69583	1627.77	1	0	0	0		$|
9505617	0	object/static/structure/corellia/corl_imprv_column_s02.iff	0	1220.66	5.78976	1627.97	0.9992	0	0.0399893	0		$|
9505618	0	object/static/structure/corellia/corl_imprv_column_s02.iff	0	1235.41	5.02484	1628	0.99955	0	-0.0299958	0		$|
9575377	0	object/static/structure/corellia/corl_power_bubble_node.iff	0	1227.85	6.09833	1630.34	1	0	0	0		$|
9575379	0	object/static/structure/corellia/corl_power_transformer_s02.iff	0	1224.11	5.53044	1630.2	1	0	0	0		$|
9575383	0	object/static/structure/corellia/corl_power_transformer_s02.iff	0	1231.53	5.52905	1630.32	1	0	0	0		$|
