spawns	name	room	loc_x	loc_y	loc_z	yaw	script	mood	animation_mood	respawn_time	spawn_objvar	special_room	special_room_script	room_objvar	room_objvar_name	room_objvar_value
s	s	s	f	f	f	f	s	s	s	i	s	s	s	s	s	s
blood_thirsty_borgle		r3	0.426025987	-40.633255	-70.41548157		theme_park.dungeon.generic_death			1800	int:ai.defaultCalmBehavior=2					
blood_thirsty_borgle		r3	0.426025987	-40.633255	-70.41548157		theme_park.dungeon.generic_death			1800	int:ai.defaultCalmBehavior=2					
blood_thirsty_borgle		r3	0.426025987	-40.633255	-70.41548157		theme_park.dungeon.generic_death			1800	int:ai.defaultCalmBehavior=2					
borgle_protector		r4	49.18745422	-46.78931046	-58.12530899		theme_park.dungeon.generic_death			1800	int:ai.defaultCalmBehavior=2					
borgle_protector		r4	49.18745422	-46.78931046	-58.12530899		theme_park.dungeon.generic_death			1800	int:ai.defaultCalmBehavior=2					
borgle_protector		r4	49.18745422	-46.78931046	-58.12530899		theme_park.dungeon.generic_death			1800	int:ai.defaultCalmBehavior=2					
borgle_protector		r5	35.10682297	-49.68893814	-135.2621307		theme_park.dungeon.generic_death			1800	int:ai.defaultCalmBehavior=2					
borgle_protector		r5	35.10682297	-49.68893814	-135.2621307		theme_park.dungeon.generic_death			1800	int:ai.defaultCalmBehavior=2					
borgle_protector		r5	35.10682297	-49.68893814	-135.2621307		theme_park.dungeon.generic_death			1800	int:ai.defaultCalmBehavior=2					
blood_thirsty_borgle		r5	-7.809340954	-46.53144073	-150.5702972		theme_park.dungeon.generic_death			1800	int:ai.defaultCalmBehavior=2					
blood_thirsty_borgle		r5	-7.809340954	-46.53144073	-150.5702972		theme_park.dungeon.generic_death			1800	int:ai.defaultCalmBehavior=2					
blood_thirsty_borgle		r5	-7.809340954	-46.53144073	-150.5702972		theme_park.dungeon.generic_death			1800	int:ai.defaultCalmBehavior=2					
borgle_protector		r6	4.708403111	-64.0202713	-181.0233154		theme_park.dungeon.generic_death			1800	int:ai.defaultCalmBehavior=2					
borgle_protector		r6	4.708403111	-64.0202713	-181.0233154		theme_park.dungeon.generic_death			1800	int:ai.defaultCalmBehavior=2					
borgle_protector		r6	4.708403111	-64.0202713	-181.0233154		theme_park.dungeon.generic_death			1800	int:ai.defaultCalmBehavior=2					
blood_thirsty_borgle		r7	-12.82796478	-64.50260162	-222.0727386		theme_park.dungeon.generic_death			1800	int:ai.defaultCalmBehavior=2					
blood_thirsty_borgle		r7	-12.82796478	-64.50260162	-222.0727386		theme_park.dungeon.generic_death			1800	int:ai.defaultCalmBehavior=2					
blood_thirsty_borgle		r7	-12.82796478	-64.50260162	-222.0727386		theme_park.dungeon.generic_death			1800	int:ai.defaultCalmBehavior=2					
borgle_protector		r8	-65.85313416	-69.0608902	-185.5432739		theme_park.dungeon.generic_death			1800	int:ai.defaultCalmBehavior=2					
borgle_protector		r8	-65.85313416	-69.0608902	-185.5432739		theme_park.dungeon.generic_death			1800	int:ai.defaultCalmBehavior=2					
borgle_protector		r8	-65.85313416	-69.0608902	-185.5432739		theme_park.dungeon.generic_death			1800	int:ai.defaultCalmBehavior=2					
blood_thirsty_borgle		r8	-73.74629211	-99.1971817	-158.7744751		theme_park.dungeon.generic_death			1800	int:ai.defaultCalmBehavior=2					
blood_thirsty_borgle		r8	-73.74629211	-99.1971817	-158.7744751		theme_park.dungeon.generic_death			1800	int:ai.defaultCalmBehavior=2					
borgle_protector		r8	-92.81435394	-101.6272049	-145.7274475		theme_park.dungeon.generic_death			1800	int:ai.defaultCalmBehavior=2					
borgle_protector		r8	-92.81435394	-101.6272049	-145.7274475		theme_park.dungeon.generic_death			1800	int:ai.defaultCalmBehavior=2					
borgle_protector		r8	-88.47186279	-70.06626892	-120.4943161		theme_park.dungeon.generic_death			1800	int:ai.defaultCalmBehavior=2					
borgle_protector		r8	-88.47186279	-70.06626892	-120.4943161		theme_park.dungeon.generic_death			1800	int:ai.defaultCalmBehavior=2					
borgle_protector		r8	-88.47186279	-70.06626892	-120.4943161		theme_park.dungeon.generic_death			1800	int:ai.defaultCalmBehavior=2					
borgle_protector		r9	-46.90835953	-69.36525726	-96.92070007		theme_park.dungeon.generic_death			1800	int:ai.defaultCalmBehavior=2					
borgle_protector		r9	-46.90835953	-69.36525726	-96.92070007		theme_park.dungeon.generic_death			1800	int:ai.defaultCalmBehavior=2					
borgle_protector		r9	-46.90835953	-69.36525726	-96.92070007		theme_park.dungeon.generic_death			1800	int:ai.defaultCalmBehavior=2					
borgle_protector		r10	-20.42021751	-80.23352051	-149.2533875		theme_park.dungeon.generic_death			1800	int:ai.defaultCalmBehavior=2					
borgle_protector		r10	-20.42021751	-80.23352051	-149.2533875		theme_park.dungeon.generic_death			1800	int:ai.defaultCalmBehavior=2					
borgle_protector		r10	-20.42021751	-80.23352051	-149.2533875		theme_park.dungeon.generic_death			1800	int:ai.defaultCalmBehavior=2					
borgle_matriarch		r11	-92.81098175	-100.9314957	-97.42961884		theme_park.dungeon.generic_death			3600	int:ai.defaultCalmBehavior=1					
borgle_protector		r11	-101.2669754	-100.6716843	-123.7068481		theme_park.dungeon.generic_death			1800	int:ai.defaultCalmBehavior=2					
borgle_protector		r11	-101.2669754	-100.6716843	-123.7068481		theme_park.dungeon.generic_death			1800	int:ai.defaultCalmBehavior=2					
borgle_protector		r11	-101.2669754	-100.6716843	-123.7068481		theme_park.dungeon.generic_death			1800	int:ai.defaultCalmBehavior=2					
