spawns	name	room	loc_x	loc_y	loc_z	yaw	script	mood	animation_mood	respawn_time	spawn_objvar	special_room	special_room_script	room_objvar	room_objvar_name	room_objvar_value
s	s	s	f	f	f	f	s	s	s	i	s	s	s	s	s	s
c_syren_4_imp_boss		warden_room	48.9	-20	154	-177	theme_park.dungeon.generic_spawner			1800	int:ai.defaultCalmBehavior=1					
fbase_imperial_noncom		warden_room	48.7	-20	139.9		theme_park.dungeon.generic_spawner			1800	int:ai.defaultCalmBehavior=2					
fbase_imperial_noncom		warden_room	48.7	-20	139.9		theme_park.dungeon.generic_spawner			1800	int:ai.defaultCalmBehavior=2					
fbase_imperial_noncom		warden_room	48.7	-20	139.9		theme_park.dungeon.generic_spawner			1800	int:ai.defaultCalmBehavior=2					
crackdown_storm_commando_hard		guardroom	50.7	-20	110		theme_park.dungeon.generic_spawner			1800	int:ai.defaultCalmBehavior=2					
crackdown_storm_commando_hard		guardroom	50.7	-20	110		theme_park.dungeon.generic_spawner			1800	int:ai.defaultCalmBehavior=2					
crackdown_storm_commando_hard		guardroom	50.7	-20	110		theme_park.dungeon.generic_spawner			1800	int:ai.defaultCalmBehavior=2					
crackdown_storm_commando_hard		guardroom	50.7	-20	110		theme_park.dungeon.generic_spawner			1800	int:ai.defaultCalmBehavior=2					
crackdown_storm_commando_hard		guardroom	50.7	-20	110		theme_park.dungeon.generic_spawner			1800	int:ai.defaultCalmBehavior=2					
crackdown_storm_commando_hard		reception	3.9	-12	62.7		theme_park.dungeon.generic_spawner			1800	int:ai.defaultCalmBehavior=2					
crackdown_storm_commando_hard		reception	3.9	-12	62.7		theme_park.dungeon.generic_spawner			1800	int:ai.defaultCalmBehavior=2					
crackdown_storm_commando_hard		reception	3.9	-12	62.7		theme_park.dungeon.generic_spawner			1800	int:ai.defaultCalmBehavior=2					
crackdown_storm_commando_hard		reception	3.9	-12	62.7		theme_park.dungeon.generic_spawner			1800	int:ai.defaultCalmBehavior=2					
crackdown_storm_commando_hard		reception	3.9	-12	62.7		theme_park.dungeon.generic_spawner			1800	int:ai.defaultCalmBehavior=2					
stormtrooper_novatrooper_cadet		security	39.5	-12	58.7		theme_park.dungeon.generic_spawner			1800	int:ai.defaultCalmBehavior=2					
stormtrooper_novatrooper_cadet		security	39.5	-12	58.7		theme_park.dungeon.generic_spawner			1800	int:ai.defaultCalmBehavior=2					
stormtrooper_novatrooper_cadet		security	39.5	-12	58.7		theme_park.dungeon.generic_spawner			1800	int:ai.defaultCalmBehavior=2					
stormtrooper_novatrooper_cadet		security	39.5	-12	58.7		theme_park.dungeon.generic_spawner			1800	int:ai.defaultCalmBehavior=2					
stormtrooper_novatrooper_cadet		security	39.5	-12	58.7		theme_park.dungeon.generic_spawner			1800	int:ai.defaultCalmBehavior=2					
stormtrooper_novatrooper_cadet		guard_room	21.3	-12	26.5		theme_park.dungeon.generic_spawner			1800	int:ai.defaultCalmBehavior=2					
stormtrooper_novatrooper_cadet		guard_room	21.3	-12	26.5		theme_park.dungeon.generic_spawner			1800	int:ai.defaultCalmBehavior=2					
stormtrooper_novatrooper_cadet		guard_room	21.3	-12	26.5		theme_park.dungeon.generic_spawner			1800	int:ai.defaultCalmBehavior=2					
stormtrooper_novatrooper_cadet		guard_room	21.3	-12	26.5		theme_park.dungeon.generic_spawner			1800	int:ai.defaultCalmBehavior=2					
stormtrooper_novatrooper_cadet		guard_room	21.3	-12	26.5		theme_park.dungeon.generic_spawner			1800	int:ai.defaultCalmBehavior=2					
