spawns	name	room	loc_x	loc_y	loc_z	yaw	script	mood	animation_mood	respawn_time	spawn_objvar	special_room	special_room_script	room_objvar	room_objvar_name	room_objvar_value
s	s	s	f	f	f	f	s	s	s	i	s	s	s	s	s	s
imperial_trooper		mainhall	-0.006099697	0.125265002	-5.058146477		theme_park.dungeon.generic_spawner			322	int:ai.defaultCalmBehavior=1					
imperial_colonel		room3	-3.333096027	0.125266001	-3.651683092		theme_park.dungeon.generic_spawner			302	int:ai.defaultCalmBehavior=1					
