strItemType	comments
s	s
item_tcg_loot_reward_series1_mechno_chair	Vehicle Deed: Mechno Chair
item_tcg_loot_reward_series1_organa_speeder	Vehicle Deed: XJ-2 Airspeeder
item_tcg_loot_reward_series1_podracer_gasgano	Vehicle Deed: Ord Pedrovia Podracer
item_tcg_loot_reward_series1_podracer_mawhonic	Vehicle Deed: GPE-3130 Podracer
item_tcg_loot_reward_series1_sith_speeder	Vehicle Deed: Sith Speeder
item_tcg_loot_reward_series3_jango_fett_memorial_statue	Jango Fett Memorial Statue
item_tcg_loot_reward_series3_koro2_exodrive_airspeeder	Vehicle Deed: Koro-2 Exodrive Airspeeder
item_tcg_loot_reward_series3_mandalorian_skull_banner	Mandalorian Skull Banner
item_tcg_loot_reward_series3_merr_sonn_jt12_jetpack_blueprints	Merr-Sonn JT-12 Jetpack Blueprints
item_tcg_loot_reward_series3_podracer_longtail	Vehicle Deed: IPG-X1131 Longtail Engine Podracer
item_tcg_loot_reward_series3_swamp_speeder	Vehicle Deed: Swamp Speeder
item_tcg_loot_reward_series4_balta_podracer_02_01	Balta-Trabaat BT310 Podracer
item_tcg_loot_reward_series4_geonosian_speeder_02_01	Vehicle Deed: Geonosian Speeder
item_tcg_loot_reward_series4_senate_pod_02_01	Vehicle Deed: Senate Pod
item_tcg_loot_reward_series5_air2_swoop_speeder	Vehicle Deed: Air-2 Racing Swoop
item_tcg_loot_reward_series5_fg_8t8_podracer	Vehicle Deed: Farwan & Glott FG 8T8-Twin Block2 Special Podracer
item_tcg_loot_reward_series5_xj6_air_speeder	Vehicle Deed: XJ-6 Airspeeder
item_tcg_loot_reward_series6_a1_deluxe_floater	Vehicle Deed: A1 Deluxe Floater
item_tcg_loot_reward_series6_build01_hk47_statuette	HK-47 Statuette
item_tcg_loot_reward_series6_build02_hk47_mustafar_diorama	HK-47 Mustafar Diorama
item_tcg_loot_reward_series6_build03_battle_droid_statuette	Battle Droid Statuette
item_tcg_loot_reward_series6_build04_hkdroid_series_poster	HK-47 Poster
item_tcg_loot_reward_series6_ric_920_speeder	Vehicle Deed: RIC-920 Rickshaw
item_tcg_loot_reward_series7_atpt_walker	Vehicle Deed: AT-PT Walker
item_tcg_loot_reward_series7_build01_tie_canopy	TIE Canopy
item_tcg_loot_reward_series7_build02_xwing_wing	X-Wing Wing
item_tcg_loot_reward_series7_build03_gunship_blueprint	Gunship Blueprint
item_tcg_loot_reward_series7_build04_broken_ball_turret	Broken Ball Turret
item_tcg_loot_reward_series7_build05_eweb_decor	Decorative E-Web
item_tcg_loot_reward_series7_military_transport	Vehicle Deed: RAM-1511 Transport
item_tcg_merr_sonn_jt12_jetpack_deed	Vehicle Deed: Merr-Sonn JT-12 Jetpack
