strItemType	comments
s	s
item_tcg_loot_reward_series1_vendor_bomarr_monk	Employment Contract: B'omarr Monk Vendor
item_tcg_loot_reward_series1_vendor_ewok	Employment Contract: Ewok Vendor
item_tcg_loot_reward_series1_vendor_gungan	Employment Contract: Gungan Vendor
item_tcg_loot_reward_series1_vendor_jawa	Employment Contract: Jawa Vendor
item_tcg_loot_reward_series1_vendor_meatlump	Employment Contract: Meatlump Vendor
item_tcg_loot_reward_series1_vendor_serving_droid	Employment Contract: Serving Droid Vendor
item_tcg_loot_reward_series3_battle_droid_vendor	Employment Contract: Battle Droid Vendor
item_tcg_loot_reward_series3_nightsister_vendor	Employment Contract: Nightsister Vendor
item_tcg_loot_reward_series4_vendor_kitonak_02_01	Employment Contract: Kitonak Vendor
item_tcg_loot_reward_series4_vendor_toydarian_02_01	Employment Contract: Toydarian Vendor
