spawns	name	required_config	room	loc_x	loc_y	loc_z	yaw	script	mood	animation_mood	respawn_time	spawn_objvar	special_room	special_room_script	room_objvar	room_objvar_name	room_objvar_value
s	s	s[none]	s	f	f	f	f	s	s	s	i	s	s	s	s	s	s
corellia_ragtag_tomi_jinsin			basement	-2.2	-13.8	-15.2	1				319						
corellia_ragtag_sentry			room1	-4.8	-6.8	-6.1					99						
corellia_ragtag_sentry			room2	-5.9	-6.8	-14.7					99						
corellia_ragtag_sentry			room2	7.6	-6.8	-14.4					99						
corellia_ragtag_blackjack			room3	3.8	-6.8	-1.1					99						
corellia_ragtag_blackjack			basement	-4.8	-13.8	-7.7					99						
corellia_ragtag_sentry			basement	0.1	-13.8	-2.7					99						
